Aquatucs_DO_barco
…
Load NOAA met forecast data

aq_sites <- unique(daily_data$siteID)
download_noaa(siteID = aq_sites, interval = "6hr", date = "2021-03-01", cycle = "00")
download_noaa(siteID = aq_sites, interval = "6hr", date = "2021-04-01", cycle = "00")
noaa_fc <- stack_noaa()
noaa_fc

## # A tibble: 8,590 x 18
##    model interval siteID runStartDate runEndDate ensemble air_temperature
##    <chr> <chr>    <chr>  <chr>        <chr>      <chr>              <dbl>
##  1 NOAA~ 6hr      BARC   2021-03-01T~ 2021-03-1~ ens00               297.
##  2 NOAA~ 6hr      BARC   2021-03-01T~ 2021-03-1~ ens00               293.
##  3 NOAA~ 6hr      BARC   2021-03-01T~ 2021-03-1~ ens00               293.
##  4 NOAA~ 6hr      BARC   2021-03-01T~ 2021-03-1~ ens00               302.
##  5 NOAA~ 6hr      BARC   2021-03-01T~ 2021-03-1~ ens00               297.
##  6 NOAA~ 6hr      BARC   2021-03-01T~ 2021-03-1~ ens00               292.
##  7 NOAA~ 6hr      BARC   2021-03-01T~ 2021-03-1~ ens00               290.
##  8 NOAA~ 6hr      BARC   2021-03-01T~ 2021-03-1~ ens00               291.
##  9 NOAA~ 6hr      BARC   2021-03-01T~ 2021-03-1~ ens00               290.
## 10 NOAA~ 6hr      BARC   2021-03-01T~ 2021-03-1~ ens00               291.
## # ... with 8,580 more rows, and 11 more variables: air_pressure <dbl>,
## #   relative_humidity <dbl>, surface_downwelling_longwave_flux_in_air <dbl>,
## #   surface_downwelling_shortwave_flux_in_air <dbl>, precipitation_flux <dbl>,
## #   specific_humidity <dbl>, cloud_area_fraction <dbl>, wind_speed <dbl>,
## #   time <dttm>, latitude <dbl>, longitude <dbl>
…
## Potential scale reduction factors:
## 
##      Point est. Upper C.I.
## [1,]       1.25        1.7

chain_dlm <- nimble_burn %>%
  spread_draws(y[day],x[day],sd_add) %>%
  mutate(y = y,
         x = x)
chain_dlm %>%
  summarize(sd_add = mean(sd_add))

## `summarise()` ungrouping output (override with `.groups` argument)

## # A tibble: 790 x 2
##      day sd_add
##    <int>  <dbl>
##  1     1  0.259
##  2     2  0.259
##  3     3  0.259
##  4     4  0.259
##  5     5  0.259
##  6     6  0.259
##  7     7  0.259
##  8     8  0.259
##  9     9  0.259
## 10    10  0.259
## # ... with 780 more rows
…
## Note: Using an external vector in selections is ambiguous.
## i Use `all_of(time2)` instead of `time2` to silence this message.
## i See <https://tidyselect.r-lib.org/reference/faq-external-vector.html>.
## This message is displayed once per session.

forecast_dates = tibble(time = seq(as.Date(start_date),as.Date(end_date), by = "days"), day = seq(1,time2,1))
forecast_output$day = as.numeric(forecast_output$day)
forecast_output =  left_join(forecast_output,forecast_dates,by="day")
forecast_output = forecast_output %>% mutate(siteID = "BARC") %>%
  mutate(forecast = 1) %>% select(-day)
forecast_output

## # A tibble: 7,000 x 5
##    ensemble oxygen time       siteID forecast
##       <dbl>  <dbl> <date>     <chr>     <dbl>
##  1        1   8.53 2021-03-01 BARC          1
##  2        1   8.46 2021-03-02 BARC          1
##  3        1   8.68 2021-03-03 BARC          1
##  4        1   8.64 2021-03-04 BARC          1
##  5        1   8.63 2021-03-05 BARC          1
##  6        1   8.24 2021-03-06 BARC          1
##  7        1   7.89 2021-03-07 BARC          1
##  8        2   8.51 2021-03-01 BARC          1
##  9        2   8.60 2021-03-02 BARC          1
## 10        2   8.01 2021-03-03 BARC          1
## # ... with 6,990 more rows
…
PF_out = x

Load NOAA met forecast data for April (# I consolidated this with the chunk at the beginning)

# eval=FALSE, include=FALSE
aq_sites <- unique(daily_data$siteID)
download_noaa(siteID = aq_sites, interval = "6hr", date = "2021-04-01", cycle = "00")
noaa_fc_april <- stack_noaa()
noaa_fc_april

## # A tibble: 137,440 x 18
##    model interval siteID runStartDate runEndDate ensemble air_temperature
##    <chr> <chr>    <chr>  <chr>        <chr>      <chr>              <dbl>
##  1 NOAA~ 6hr      BARC   2021-03-01T~ 2021-03-1~ ens00               297.
##  2 NOAA~ 6hr      BARC   2021-03-01T~ 2021-03-1~ ens00               293.
##  3 NOAA~ 6hr      BARC   2021-03-01T~ 2021-03-1~ ens00               293.
##  4 NOAA~ 6hr      BARC   2021-03-01T~ 2021-03-1~ ens00               302.
##  5 NOAA~ 6hr      BARC   2021-03-01T~ 2021-03-1~ ens00               297.
##  6 NOAA~ 6hr      BARC   2021-03-01T~ 2021-03-1~ ens00               292.
##  7 NOAA~ 6hr      BARC   2021-03-01T~ 2021-03-1~ ens00               290.
##  8 NOAA~ 6hr      BARC   2021-03-01T~ 2021-03-1~ ens00               291.
##  9 NOAA~ 6hr      BARC   2021-03-01T~ 2021-03-1~ ens00               290.
## 10 NOAA~ 6hr      BARC   2021-03-01T~ 2021-03-1~ ens00               291.
## # ... with 137,430 more rows, and 11 more variables: air_pressure <dbl>,
## #   relative_humidity <dbl>, surface_downwelling_longwave_flux_in_air <dbl>,
## #   surface_downwelling_shortwave_flux_in_air <dbl>, precipitation_flux <dbl>,
## #   specific_humidity <dbl>, cloud_area_fraction <dbl>, wind_speed <dbl>,
## #   time <dttm>, latitude <dbl>, longitude <dbl>
…
Convert forecast output to format for submission to EFI challenge

colnames(DO.det) <- seq(1,time2,1)
forecast_output = as_tibble(DO.det) 
forecast_output = forecast_output %>% mutate(ensemble = seq(1,nrow(DO.det),1)) %>% pivot_longer(cols=1:time2, names_to="day", values_to="oxygen" )
forecast_dates = tibble(time = seq(as.Date(start_date),as.Date(end_date), by = "days"), day = seq(1,time2,1))
forecast_output$day = as.numeric(forecast_output$day)
forecast_output =  left_join(forecast_output,forecast_dates,by="day")
forecast_output = forecast_output %>% mutate(siteID = "BARC") %>%
  mutate(forecast = 1) %>% select(-day)
forecast_output

## # A tibble: 7,000 x 5
##    ensemble oxygen time       siteID forecast
##       <dbl>  <dbl> <date>     <chr>     <dbl>
##  1        1   8.18 2021-04-01 BARC          1
##  2        1   8.05 2021-04-02 BARC          1
##  3        1   8.17 2021-04-03 BARC          1
##  4        1   8.01 2021-04-04 BARC          1
##  5        1   7.57 2021-04-05 BARC          1
##  6        1   7.60 2021-04-06 BARC          1
##  7        1   7.73 2021-04-07 BARC          1
##  8        2   8.19 2021-04-01 BARC          1
##  9        2   8.27 2021-04-02 BARC          1
## 10        2   8.38 2021-04-03 BARC          1
## # ... with 6,990 more rows
…
